[
    {
        "questions": [
            "Where can I buy required textbooks?"
        ],
        "answers": [
            {
                "vars": [],
                "text": "You can buy textbooks from the Cal Poly bookstore. You can also look online at places like Amazon.com, Chegg, or Ebay."
            }
        ]
    },
    {
        "questions": [
            "Where can I buy required textbooks?",
            "Where can I find more information about buying textbooks?",
            "Can you help me buy textbooks?"
        ],
        "answers": [
            {
                "vars": [],
                "text": "You can buy textbooks from the Cal Poly bookstore."
            }
        ]
    },
    {
        "questions": [
            "Are there any concentrations in this department?"
        ],
        "answers": [
            {
                "vars": [],
                "text": "Yes, there is an Interactive Entertainment concentration in the Computer Science major."
            }
        ]
    },
    {
        "questions": [
            "Can I take classes pass/fail?",
            "Can you take classes pass/fail?",
            "Can I take courses pass/fail?",
            "Can you take courses pass/fail?",
            "Can I take classes credit/no credit?",
            "Can you take courses credit/no credit?",
            "Can I take classes C/NC?",
            "What is credit/no credit?",
            "What is pass/fail?",
            "What is C/NC?"
        ],
        "answers": [
            {
                "vars": [],
                "text": "To receive a degree from the college of Engineering, students are allowed to take up to one non-major class as credit/no credit (CR/NR).  Classes taken CR/NR do not effect GPA.  For more information, check out the following link: http://registrar.calpoly.edu/content/registration/credit_nocrps2"
            }
        ]
    },
    {
        "questions": [
            "Can I double major?",
            "How do I double major?",
            "double major?"
        ],
        "answers": [
            {
                "vars": [],
                "text": "The College of Engineering does not encourage or recommend double majors. It is extremely rare that a double major request will be approved. Eligible students are encouraged to pursue a master's program (upon completion of their undergraduate coursework) or a 4 + 1 program.\nThat being said, it is possible to double major.  Students must first apply with a letter outlining why they want to persue both degrees.  For more information, check out the link: https://eadvise.calpoly.edu/policies/double-majors/"
            }
        ]
    },
    {
        "questions": [
            "Where should I go to get more information about the CSC schedule?",
            "Where can I view information about current CSC sections?"
        ],
        "answers": [
            {
                "vars": [],
                "text": "To view information about the current quarter of Computer Science classes, go to http://schedules.calpoly.edu/subject_CSC_curr.htm"
            }
        ]
    },
    {
        "questions": [
            "Where should I go to get more information about the CPE schedule?",
            "Where can I view information about current CPE sections?",
            "Where should I go to get more information about open Computer Engineering classes?"
        ],
        "answers": [
            {
                "vars": [],
                "text": "To view information about the current quarter of Computer Science classes, go to http://schedules.calpoly.edu/subject_CPE_curr.htm"
            }
        ]
    },
    {
        "questions": [
            "Where should I go to get more information about open Computer Science classes?"
        ],
        "answers": [
            {
                "vars": [],
                "text": "To view information about the current quarter of Computer Science classes go to http://schedules.calpoly.edu/subject_CSC_curr.htm"
            }
        ]
    },
    {
        "questions": [
            "How can I see what courses are in [MAJOR]?",
            "What courses are in [MAJOR]?",
            "Where can I see what courses are in [MAJOR]?",
            "How can I find what courses are in [MAJOR]?",
            "Where can I find what courses are in [MAJOR]?",
            "Which courses are in [MAJOR]?",
            "What classes are in [MAJOR]?",
            "How can I find course descriptions for courses in [MAJOR]?",
            "Is there a list of courses in [MAJOR]?",
            "Where is the list of courses in [MAJOR]?",
            "How can I find the list of courses in [MAJOR]?"
        ],
        "answers": [
            {
                "text": "For a list of courses (and descriptions) offered in Computer Science, follow this url: http://catalog.calpoly.edu/coursesaz/CSC",
                "vars": [{"var": "MAJOR", "val": "CSC"}]
            },
            {
                "text": "For a list of courses (and descriptions) offered in Software Engineering, follow this url: http://catalog.calpoly.edu/coursesaz/SE",
                "vars": [{"var": "MAJOR", "val": "SE"}]
            },
            {
                "text": "For a list of courses (and descriptions) offered in Computer Engineering, follow this url: http://catalog.calpoly.edu/coursesaz/CPE",
                "vars": [{"var": "MAJOR", "val": "CPE"}]
            }
        ]
    },
    {
        "questions": [
            "Is there a list of courses available in each department?"
        ],
        "answers": [
            {
                "vars": [],
                "text": "There certainly is!  To find the list of courses offered by each department, either go to the following url (http://catalog.calpoly.edu/coursesaz/) or ask me for about a particular department and I'll be happy to help."
            }
        ]
    },
    {
        "questions": [
            "How can I find what courses each department offers?",
            "Where's the list of courses offered by each department?",
            "Where the list of courses each department offers?",
            "Which departments offer which courses?",
            "What department offers what course?",
            "What departments offer what courses?",
            "What courses are in each department?",
            "What does each department offer?"
        ],
        "answers": [
            {
                "vars": [],
                "text": "To find the list of courses offered by each department, either go to the following url (http://catalog.calpoly.edu/coursesaz/) or ask me for about a particular department and I'll be happy to help."
            }
        ]
    },
    {
        "questions": [
            "What is a flowchart?",
            "Tell me about flowcharts.",
            "flowchart."
        ],
        "answers": [
            {
                "vars": [],
                "text": "A flowchart is a document that shows a recommendation for what classes students of a particular major should take when.  To find your recommended flowchart, go here: http://flowcharts.calpoly.edu/"
            }
        ]
    },
    {
        "questions": [
            "How can I find the flowchart for [MAJOR]",
            "Where is the flowchart for [MAJOR]",
            "Where can I find flowcharts?",
            "How can I find flowcharts?",
            "Where the flowcharts at?",
            "How can I find the flowchart for [MAJOR] in [CATALOG]?",
            "How can I find old flowcharts?",
            "How can I find flowcharts for old catalogs?",
            "Where can I find the flowchart for [MAJOR] in [CATALOG]?",
            "Where can I find old flowcharts?",
            "Where can I find flowcharts for old catalogs?",
            "Where are the flowcharts for old catalogs?",
            "Where are the old flowcharts?",
            "How can I find old flowcharts?",
            "Tell me where to find flowcharts",
            "Where do I go to find flowcharts?",
            "What's the link for flowcharts?"
        ],
        "answers": [
            {
                "vars": [],
                "text": "To find the flowchart for you catalog and major, go to the following url.  It will ask you to input your catalog year (If you are a new student, your catalog will be 15-17), your major, and your concentration.  If you don't know your concentration or haven't picked one, select \"Not applicable for this major\".  http://flowcharts.calpoly.edu/"
            }
        ]
    },
    {
        "questions": [
            "What is software engineering?",
            "What is software engineering about?",
            "What is software engineering like at Cal Poly?",
            "Can you tell me what Software Engineering is about?",
            "Can you tell me more about software engineering?",
            "Can you tell me about software engineering?"
        ],
        "answers": [
            {
                "vars": [],
                "text": "Software engineering students get a strong technical preparation in computer science fundamentals. The program emphasizes a combination of technical and team management skills. A graduate of the program is expected to understand the challenges of large-scale systems development and to be equipped with the necessary technical, process and people skills to be productive in a team environment immediately upon leaving Cal Poly. More can be found at https://csc.calpoly.edu/programs/"
            }
        ]
    },
    {
        "questions": [
            "what is computer science?",
            "Can you tell me what computer science is about?",
            "what is computer science?",
            "Can you tell me more about computer science?",
            "Can you tell me about software engineering?"
        ],
        "answers": [
            {
                "vars": [],
                "text": "US News & World Report and other national publications recognize Cal Poly as having one of the best undergraduate computer science programs in the country. What makes the program stand out are: its very talented students, strong interactions with faculty on industry projects, a deep commitment to teaching, and laboratories with up-to-date technology. More can be found at https://csc.calpoly.edu/programs/"
            }
        ]
    },
    {
        "questions": [
            "Can you tell me about computer engineering?",
            "What is computer engineering?",
            "What is computer engineering about?",
            "What is computer engineering like?"
        ],
        "answers": [
            {
                "vars": [],
                "text": "Computer Engineering combines the software related development of Computer Science and the hardware related development of Electrical Engineering into a comprehensive course of study. As a Computer Engineer, you work with others to integrate computer software and hardware. The Cal Poly Computer Engineering curriculum provides a sound theoretical background along with current, practical engineering knowledge. Along with their major and technical elective courses, students must take a broad range of liberal arts, science, and mathematics courses and many classes include team-based project assignments. More can be found athttps://cpe.calpoly.edu/about/"
            }
        ]
    },
    {
        "questions": [
            "How many units do you need for Computer Science Minor?",
            "How many units do I need for a Computer Science Minor?"
        ],
        "answers": [
            {
                "vars": [],
                "text": "32 Units."
            }
        ]
    },
    {
        "questions": [
            "How many units do you need for a Data Science Minor?",
            "How many units do I need for a Data Science Minor?"
        ],
        "answers": [
            {
                "vars": [],
                "text": "80 Units. But that includes many units needed for your Major. You can only minor in Data Science if you are majoring in Statistics or Computer Science"
            }
        ]
    },
    {
        "questions": [
            "How many units do you need for a Computing for Interactive Arts Minor?",
            "How many units do I need for a Computing for Interactive Arts Minor?"
        ],
        "answers": [
            {
                "vars": [],
                "text": "44 Units."
            }
        ]
    },
    {
        "questions": [
            "Does Computer Science have a Master's Program?",
            "Any Master's Program for Computer Science?",
            "Is the computer science major offered at Cal Poly San Luis Obispo?",
            "Is the software engineering major offered at Cal Poly San Luis Obispo?",
            "Is the computer engineering major offered at Cal Poly San Luis Obispo?",
            "Does the computer engineering major at Cal Poly San Luis Obispo fall under the CSC department?",
            "Can I get a masters degress in computer science?",
            "Can I earn a dual degree in Computer Engineering and any non engineering degree?",
            "Is the software engineering major impacted?"
        ],
        "answers": [
            {
                "vars": [],
                "text": "Yes"
            }
        ]
    },
    {
        "questions": [
            "Can I minor and major in Computer Science?",
            "Can I earn a dual degree in Computer Engineering and Software Engineering",
            "Can I earn a dual degree in Computer Science and Software Engineering",
            "Can I earn a dual degree in Computer Engineering and Computer Science"
        ],
        "answers": [
            {
                "vars": [],
                "text": "No"
            }
        ]
    },
    {
        "questions": [
            "How many majors are offered through the CSC department?"
        ],
        "answers": [
            {
                "vars": [],
                "text": "Three different majors are offered: Computer Science, Software Engineering and Computer Engineering (co-joint with Electrical Engineering department)"
            }
        ]
    },
    {
        "questions": [
            "Why should I take Computer Science?"
        ],
        "answers": [
            {
                "vars": [],
                "text": "Computer Science (CSC) covers topics from theory through programming to cutting-edge development of computing solutions. The computer science major provides an excellent foundation that allows graduates to adapt to new technologies and new innovative ideas.\n\nComputer scientists design and develop all types of software from systems infrastructure (operating systems, communications programs, etc.) to application technologies (interactive entertainment, games, web and mobile apps, artificial intelligence suites, software for robotics, databases, search engines, etc.). Computer scientists create these capabilities, but typically they do not manage the deployment of them.\n\nComputing professionals hardly ever work alone. In today\u2019s world, being a computer scientists building software (or any other application) requires the coordinated efforts of many people with a wide variety of skills."
            }
        ]
    },
    {
        "questions": [
            "Why should I take Software Engineering?"
        ],
        "answers": [
            {
                "vars": [],
                "text": "Software Engineering (SE) covers the development, deployment and maintenance software systems (i.e., phases of the life cycle of software systems). Such systems must behave reliably, efficiently, be affordable to develop and maintain, and must satisfy all the requirements that customers have specified. Such characteristics are vitally important because of the impact of large and expensive software systems on safety-critical applications (i.e., medical, aerospace, telecommunications, national security).\n\nSoftware Engineering integrates significant aspects of computer science, along with mathematics and practices whose origins are in engineering. It provides extensive training working in group environments, as well as team-based projects involving interactions with customers (Peopleware).\n\nSoftware development is a highly creative activity. There is very little that is mechanical about software development\u2014if there were, those aspects of the discipline would have been automated years ago."
            }
        ]
    },
    {
        "questions": [
            "Why should I take Computer Engineering?"
        ],
        "answers": [
            {
                "vars": [],
                "text": "Computer Engineering (CPE) covers the design and construction of computers and computer-based systems. The discipline involves the study of hardware, software, communications, and the interaction among them, while focusing on the theories, principles, and practices of traditional electrical engineering, computer science and mathematics.\n\nFor computer engineers, programming is focused on digital devices and their interfaces with users and other devices. An important area within computing engineering is the development of embedded systems (i.e., cell phones, digital video/audio recorders, x-ray machines). Also, the area of robotics necessitates the integration of skills between computer engineering and computer science."
            }
        ]
    },
    {
        "questions": [
            "What is the difference between Computer Science and Software Engineering?"
        ],
        "answers": [
            {
                "vars": [],
                "text": "Computer Science (CSC) covers topics from theory through programming to cutting-edge development of computing solutions. The computer science major provides an excellent foundation that allows graduates to adapt to new technologies and new innovative ideas.\nComputer scientists design and develop all types of software from systems infrastructure (operating systems, communications programs, etc.) to application technologies (interactive entertainment, games, web and mobile apps, artificial intelligence suites, software for robotics, databases, search engines, etc.). Computer scientists create these capabilities, but typically they do not manage the deployment of them.\nComputing professionals hardly ever work alone. In today\u2019s world, being a computer scientists building software (or any other application) requires the coordinated efforts of many people with a wide variety of skills.\nSoftware Engineering (SE) covers the development, deployment and maintenance software systems (i.e., phases of the life cycle of software systems). Such systems must behave reliably, efficiently, be affordable to develop and maintain, and must satisfy all the requirements that customers have specified. Such characteristics are vitally important because of the impact of large and expensive software systems on safety-critical applications (i.e., medical, aerospace, telecommunications, national security).\nSoftware Engineering integrates significant aspects of computer science, along with mathematics and practices whose origins are in engineering. It provides extensive training working in group environments, as well as team-based projects involving interactions with customers (Peopleware).\nSoftware development is a highly creative activity. There is very little that is mechanical about software development\u2014if there were, those aspects of the discipline would have been automated years ago.\n"
            }
        ]
    },
    {
        "questions": [
            "What is the difference between Software Engineering and Computer Engineering?"
        ],
        "answers": [
            {
                "vars": [],
                "text": "Software Engineering (SE) covers the development, deployment and maintenance software systems (i.e., phases of the life cycle of software systems). Such systems must behave reliably, efficiently, be affordable to develop and maintain, and must satisfy all the requirements that customers have specified. Such characteristics are vitally important because of the impact of large and expensive software systems on safety-critical applications (i.e., medical, aerospace, telecommunications, national security).\nSoftware Engineering integrates significant aspects of computer science, along with mathematics and practices whose origins are in engineering. It provides extensive training working in group environments, as well as team-based projects involving interactions with customers (Peopleware).\nSoftware development is a highly creative activity. There is very little that is mechanical about software development\u2014if there were, those aspects of the discipline would have been automated years ago.\nComputer Engineering (CPE) covers the design and construction of computers and computer-based systems. The discipline involves the study of hardware, software, communications, and the interaction among them, while focusing on the theories, principles, and practices of traditional electrical engineering, computer science and mathematics.\nFor computer engineers, programming is focused on digital devices and their interfaces with users and other devices. An important area within computing engineering is the development of embedded systems (i.e., cell phones, digital video/audio recorders, x-ray machines). Also, the area of robotics necessitates the integration of skills between computer engineering and computer science.\n"
            }
        ]
    },
    {
        "questions": [
            "What is the difference between Computer Science and Computer Engineering?"
        ],
        "answers": [
            {
                "vars": [],
                "text": "Computer Science (CSC) covers topics from theory through programming to cutting-edge development of computing solutions. The computer science major provides an excellent foundation that allows graduates to adapt to new technologies and new innovative ideas.\nComputer scientists design and develop all types of software from systems infrastructure (operating systems, communications programs, etc.) to application technologies (interactive entertainment, games, web and mobile apps, artificial intelligence suites, software for robotics, databases, search engines, etc.). Computer scientists create these capabilities, but typically they do not manage the deployment of them.\nComputing professionals hardly ever work alone. In today\u2019s world, being a computer scientists building software (or any other application) requires the coordinated efforts of many people with a wide variety of skills.\n\nComputer Engineering (CPE) covers the design and construction of computers and computer-based systems. The discipline involves the study of hardware, software, communications, and the interaction among them, while focusing on the theories, principles, and practices of traditional electrical engineering, computer science and mathematics.\nFor computer engineers, programming is focused on digital devices and their interfaces with users and other devices. An important area within computing engineering is the development of embedded systems (i.e., cell phones, digital video/audio recorders, x-ray machines). Also, the area of robotics necessitates the integration of skills between computer engineering and computer science.\n"
            }
        ]
    },
    {
        "questions": [
            "How long does it take to complete the Computer Science major?"
        ],
        "answers": [
            {
                "vars": [],
                "text": "On average students take 4 years to obtain a bachelors degree in Computer Science."
            }
        ]
    },
    {
        "questions": [
            "How long does it take to complete the Computer Engineering major?"
        ],
        "answers": [
            {
                "vars": [],
                "text": "On average students take 4 years to obtain a bachelors degree in Computer Engineering."
            }
        ]
    },
    {
        "questions": [
            "How long does it take to complete the Software Engineering major?"
        ],
        "answers": [
            {
                "vars": [],
                "text": "On average students take 4 years to obtain a bachelors degree in Software Engineering."
            }
        ]
    },
    {
        "questions": [
            "How many units need to be taken to obtain a bachelors in Computer Science?"
        ],
        "answers": [
            {
                "vars": [],
                "text": "180-181"
            }
        ]
    },
    {
        "questions": [
            "How many units need to be taken to obtain a bachelors in Software Engineering?"
        ],
        "answers": [
            {
                "vars": [],
                "text": "187-188"
            }
        ]
    },
    {
        "questions": [
            "How many units need to be taken to obtain a bachelors in Computer Engineering?"
        ],
        "answers": [
            {
                "vars": [],
                "text": "192-195"
            }
        ]
    },
    {
        "questions": [
            "How many GE units do I need to take for a bachelors in Computer Science?"
        ],
        "answers": [
            {
                "vars": [],
                "text": "40"
            }
        ]
    },
    {
        "questions": [
            "How many GE units do I need to take for a bachelors in Software Engineering?"
        ],
        "answers": [
            {
                "vars": [],
                "text": "36"
            }
        ]
    },
    {
        "questions": [
            "How many GE units do I need to take for a bachelors in Computer Engineering?"
        ],
        "answers": [
            {
                "vars": [],
                "text": "44"
            }
        ]
    },
    {
        "questions": [
            "Does the CSC department offer a master's degree?"
        ],
        "answers": [
            {
                "vars": [],
                "text": "Yes, the CSC department offers a M.S program in Computer Science"
            }
        ]
    },
    {
        "questions": [
            "Does the CSC department have any combined masters and bachelors program?"
        ],
        "answers": [
            {
                "vars": [],
                "text": "Yes, the CSC department offers a Blended MS+BS program (aka 1+ year program)"
            }
        ]
    },
    {
        "questions": [
            "What are the requirements to do the +1 program?"
        ],
        "answers": [
            {
                "vars": [],
                "text": "The M.S. degree requires at least 45 units beyond the undergraduate degree. Twenty units are selected from a required list, 16 units are selected from approved electives, and there are 9 units of thesis and seminar. "
            }
        ]
    },
    {
        "questions": [
            "Describe the Master's program?"
        ],
        "answers": [
            {
                "vars": [],
                "text": "The M.S. program in Computer science offers students the opportunity to prepare for careers in several areas of emphasis, including software engineering, computer architecture, programming languages, theory of computing, operating systems, database systems, distributed computing, computer networks, artificial intelligence, computer graphics, and human-computer interaction.\\n Qualified students who do not have an undergraduate degree in Computer Science may be admitted as unclassified students.\\n The M.S. degree requires at least 45 units beyond the undergraduate degree. Twenty units are selected from a required list, 16 units are selected from approved electives, and there are 9 units of thesis and seminar."
            }
        ]
    },
    {
        "questions": [
            "Who is eligible for the Master's program?"
        ],
        "answers": [
            {
                "vars": [],
                "text": "Students are NOT eligible to apply if they have enrolled in or finished senior project."
            }
        ]
    },
    {
        "questions": [
            "What will I learn in Computer Science?"
        ],
        "answers": [
            {
                "vars": [],
                "text": "An ability to apply knowledge of computing and mathematics appropriate to the discipline.\\n An ability to analyze a problem, and identify and define the computing requirements appropriate to its solution.\\n An ability to design, implement, and evaluate a computer-based system, process, component, or program to meet desired needs.\\n An ability to function effectively on teams to accomplish a common goal.\\n An understanding of professional, ethical, legal, security, and social issues and responsibilities.\\n An ability to communicate effectively with a range of audiences.\\n An ability to analyze the local and global impact of computing on individuals, organizations, and society.\\n Recognition of the need for, and an ability to engage in continuing professional development.\\n An ability to use current techniques, skills, and tools necessary for computing practice.\\n An ability to apply mathematical foundations, algorithmic principles, and computer science theory in the modeling and design of computer-based systems in a way that demonstrates comprehension and the tradeoffs involved in design choices.\\n An ability to apply design and development principles in the construction of software systems of varying complexity."
            }
        ]
    },
    {
        "questions": [
            "What will I learn in Software Engineering?"
        ],
        "answers": [
            {
                "vars": [],
                "text": "An ability to apply knowledge of mathematics, science, and engineering.\nAn ability to design and conduct experiments, as well as to analyze and interpret data.\nAn ability to design a system, component, or process to meet desired needs within realistic constraints such as economic, environmental, social, political, ethical, health and safety, manufacturability, and sustainability.\nAn ability to function on multi-disciplinary teams.\nAn ability to identify, formulate, and solve engineering problems.\nAn understanding of professional and ethical responsibility.\nAn ability to communicate effectively.\nThe broad education necessary to understand the impact of engineering solutions in a global, economic, environmental, and societal context.\nA recognition of the need for, and an ability to engage in life-long learning.\nA knowledge of contemporary issues.\nAn ability to use the techniques, skills, and modern engineering tools necessary for engineering practice."
            }
        ]
    },
    {
        "questions": [
            "What will I learn in Computer Engineering?"
        ],
        "answers": [
            {
                "vars": [],
                "text": "In addition to the general abilities expected of College of Engineering graduates, computer engineering students are expected to graduate with:\n\nAn ability to apply knowledge of mathematics, science, and engineering.\nAn ability to design and conduct experiments, as well as to analyze and interpret data.\nAn ability to design a system, component or process to meet desired needs within realistic constraints such as economic, environmental, social, political, ethical, health and safety, manufacturability, and sustainability.\nAn ability to function on multidisciplinary teams.\nAn ability to identify, formulate, and solve engineering problems.\nAn understanding of professional and ethical responsibility.\nAn ability to communicate effectively.\nThe broad education necessary to understand the impact of engineering solutions in a global, economic, environmental, and societal context.\nA recognition of the need for, and an ability to engage in life-long learning.\nA knowledge of contemporary issues.\nAn ability to use the techniques, skills, and modern engineering tools necessary for engineering practice.\nIn addition to the general abilities expected of College of Engineering graduates, computer engineering students are expected to graduate with:\n\nKnowledge of probability and statistics, including applications appropriate to CPE program objectives.\nKnowledge of mathematics through differential and integral calculus, basic sciences, and engineering sciences necessary to analyze and design complex electrical and electronic devices, software, and systems containing hardware and software components, as appropriate to CPE program objectives.\nKnowledge of advanced mathematics, typically including differential equations, linear algebra, complex variables, and discrete mathematics."
            }
        ]
    },
    {
        "questions": [
            "What are the degree requirements for masters?"
        ],
        "answers": [
            {
                "vars": [],
                "text": "Students must file a Formal Study Plan with the Computer Science Department office no later than the end of the quarter in which they complete the twelfth unit of coursework to be counted toward the degree. The formal study plan identifies specific courses to be taken to fulfill requirements of the MS degree. The formal study plan may be amended with approval of the graduate coordinator."
            }
        ]
    },
    {
        "questions": [
            "What will I learn through the masters program?"
        ],
        "answers": [
            {
                "vars": [],
                "text": "The MS program in Computer Science offers students the opportunity to prepare for careers in several areas of emphasis including software engineering, computer architecture, programming languages, theory of computing, operating systems, database systems, distributed computing, computer networks, artificial intelligence, computer graphics, and human computer interaction. The program is designed for maximum flexibility to allow students to concentrate in one or more areas of study.\n\n"
            }
        ]
    },
    {
        "questions": [
            "How many units do I need to earn a masters degree?"
        ],
        "answers": [
            {
                "vars": [],
                "text": "45 units"
            }
        ]
    },
    {
        "questions": [
            "How does double majors work?"
        ],
        "answers": [
            {
                "vars": [],
                "text": "If a student has completed the requirements for two or more majors leading to the same baccalaureate degree (e.g., two BS degrees), those majors are acknowledged on a single diploma. The major which the student requests as her/his primary major will appear first on the diploma. If a student has completed the requirements for two or more majors leading to different baccalaureate degrees (e.g., a BS and a BA), those degrees and the completed major or majors leading to each degree are acknowledged on two separate diplomas. If a student has completed concurrently the requirements for two or more degrees, at least one of which is a graduate degree, Cal Poly issues a separate diploma for each degree earned.\n\nA student who adds a second major to her/his degree objective is expected to fulfill all requirements for both majors. However, a student may be allowed to use one senior project to fulfill the requirements for two majors. The program in which the student seeks to replace the senior project must grant permission before the student begins the project. Permission must be obtained using a major/support substitution.\n\nStudents who have declared two majors will be awarded both degrees for the term in which all requirements are completed for both majors.\n"
            }
        ]
    },
    {
        "questions": [
            "Can I change majors in the CSC department?"
        ],
        "answers": [
            {
                "vars": [],
                "text": "Yes, but certain majors are impacted."
            }
        ]
    },
    {
        "questions": [
            "Is USCP requirement has to met for [MAJOR]?",
            "Do I have to meet the USCP requirement to graduate from [MAJOR]?"
        ],
        "answers": [
            {
                "vars": [],
                "text": "All majors require USCP requirement to be met"
            }
        ]
    },
    {
        "questions": [
            "How many majors are offered in Cal Poly?",
            "What is the number of majors that are offered in Cal Poly?"
        ],
        "answers": [
            {
                "vars": [],
                "text": "Cal Poly Computer Science department offers 3 majors"
            }
        ]
    },
    {
        "questions": [
            "How many departments are there in Cal Poly?",
            "What is the number of departments are there in Cal Poly?"
        ],
        "answers": [
            {
                "vars": [],
                "text": "Cal Poly has [NUM_DEPTS] departments"
            }
        ]
    }
]
